BEACON
Date,Priceundefined
4/30/2020 19:14,18000
4/30/2020 19:19,18000
4/30/2020 19:49,18000
5/2/2020 2:22,18000
5/5/2020 5:10,18000
5/7/2020 20:24,15000
5/11/2020 2:1,16000
5/17/2020 20:43,16499
5/18/2020 21:27,16500
6/1/2020 2:58,15000
8/8/2020 18:16,10000
8/9/2020 6:4,10000
8/19/2020 16:38,10000
9/1/2020 2:36,20000
11/22/2020 1:59,15000
12/9/2020 4:13,30000
12/19/2020 11:4,25000
1/24/2021 12:29,20000
1/25/2021 14:14,20000
1/26/2021 1:35,19999
2/2/2021 23:59,20000
3/21/2021 17:50,20000
3/26/2021 17:42,20000
3/27/2021 22:25,20000
3/30/2021 20:29,20000
5/14/2021 0:2,30000
5/18/2021 14:33,24000
5/18/2021 17:42,25000
5/31/2021 19:9,24000
7/7/2021 22:9,20032
7/12/2021 21:43,30000
7/12/2021 21:43,30000
7/12/2021 21:43,30000
7/12/2021 21:43,30000
7/12/2021 23:3,30000
7/17/2021 17:26,25024
7/17/2021 17:30,25024
8/1/2021 4:58,30000
8/23/2021 22:20,50000
8/24/2021 22:41,30000
9/2/2021 12:14,39999
9/6/2021 13:54,30000
9/6/2021 17:3,30000
9/17/2021 1:36,32000
9/23/2021 11:51,32000
9/25/2021 4:59,33800
9/25/2021 4:59,34000
9/28/2021 16:49,40000
10/16/2021 0:5,32500
10/16/2021 4:35,30000
10/19/2021 15:7,30000
10/20/2021 18:54,37000
10/23/2021 12:21,38999
10/23/2021 15:37,35000
10/24/2021 5:40,38999
11/4/2021 23:45,40000
11/10/2021 21:36,32500
11/28/2021 22:5,32000
11/30/2021 1:56,38000
1/7/2022 23:47,30000
2/5/2022 21:57,30000
2/8/2022 4:30,24000
2/23/2022 0:11,30000
3/5/2022 16:55,35000
3/10/2022 18:9,50000
3/30/2022 6:20,37000
4/3/2022 0:22,35000
4/3/2022 0:22,37000
4/13/2022 22:43,30000
4/14/2022 23:33,30000
4/19/2022 21:28,30000
4/23/2022 16:4,35000
4/24/2022 0:38,35000
4/25/2022 17:21,24000
4/25/2022 1:6,35000
4/30/2022 17:20,35000
4/30/2022 17:20,35000
5/2/2022 3:13,35000
5/3/2022 13:43,25000
5/6/2022 0:41,40000
5/11/2022 17:17,30000
6/2/2022 1:20,32000
6/13/2022 18:24,30000
6/18/2022 12:27,32000
6/19/2022 0:29,30000
6/20/2022 21:17,35000
6/21/2022 10:39,35000
6/22/2022 7:15,35000
6/30/2022 10:26,32000
6/30/2022 19:43,21000
7/6/2022 17:2,39999
7/8/2022 1:4,24999
7/11/2022 16:23,25000
7/21/2022 14:31,29999
7/22/2022 15:35,20000
7/22/2022 15:47,29999
7/23/2022 12:50,20000
7/27/2022 15:29,39999
8/1/2022 19:10,32000
8/1/2022 21:49,31000
8/1/2022 22:48,31000
8/17/2022 15:41,30000
8/19/2022 0:2,29500
8/25/2022 11:33,30000
8/26/2022 11:54,30000
8/27/2022 11:14,30000
8/28/2022 17:27,30000
9/1/2022 1:59,35000
9/4/2022 2:38,21000
9/21/2022 11:11,30000
9/21/2022 17:38,29000
9/21/2022 20:1,28750
9/21/2022 20:23,30000
9/21/2022 1:18,5000
10/8/2022 10:51,40000
10/12/2022 19:53,35000
10/15/2022 0:11,35000
10/24/2022 15:28,36000
10/30/2022 22:59,36000
11/11/2022 13:30,27000
11/14/2022 15:56,30000
11/14/2022 15:56,30000
11/14/2022 15:56,30000
11/14/2022 15:56,30000
11/25/2022 14:8,35000
11/28/2022 4:0,32000
11/30/2022 11:58,33333
12/5/2022 18:40,30000
12/8/2022 13:26,33000
12/8/2022 16:6,34998
12/8/2022 18:19,27500
12/12/2022 19:14,29000
12/14/2022 19:33,29000
12/16/2022 0:12,29000
12/18/2022 2:44,25000
12/18/2022 2:48,25000
12/18/2022 2:48,25000
12/18/2022 2:50,33000
12/26/2022 23:56,35000
12/31/2022 21:3,39000
12/31/2022 21:3,40000
1/14/2023 23:13,40000
1/21/2023 21:5,30000
1/28/2023 21:37,32000
1/28/2023 23:55,32000
1/28/2023 23:55,32000
1/28/2023 23:55,32000
2/9/2023 20:13,30000
2/9/2023 20:13,30000
2/10/2023 4:15,35000
2/15/2023 14:49,35000
2/18/2023 15:4,29000
2/21/2023 0:54,40000
2/28/2023 1:44,42000
3/1/2023 0:15,35000
3/3/2023 23:10,40000
3/4/2023 20:51,42000